{
    "builders": [
      {
        "profile": "default",
        "region": "us-east-1",
        "type": "amazon-ebs",
        "source_ami": "ami-046842448f9e74e7d",
        "instance_type": "t2.micro",
        "ssh_username": "ubuntu",
        "ami_name": "nginx-{{timestamp}}"
      }
    ],
    "provisioners": [
      {
        "type": "file",
        "source": "sss.service",
        "destination": "/home/ubuntu/sss.service"
      },
      {
        "type": "shell",
        "inline": [
          "sudo apt-get update",
          "sudo apt-get upgrade -y",
          "sudo apt-get install curl -y",
          "cd /usr/bin && sudo curl -sSLO https://gitlab.com/j4ng5y/super-simple-test-server/uploads/f40d91a6ea1355f8d0d3092ea2f132ad/sss",
          "sudo mv /home/ubuntu/sss.service /etc/systemd/system/sss.service",
          "sudo chmod +x /usr/bin/sss",
          "sudo systemctl daemon-reload",
          "sudo systemctl enable sss.service",
          "sudo systemctl start sss.service",
          "sudo ufw disable"
        ]
      }
    ]
  }